divisor.vcd
$date
	Fri Nov 15 19:31:04 2024
$end
$version
	QuestaSim Version 2020.2
$end
$timescale
	1ps
$end

$scope module Top_divisor $end

$scope module Duv $end

$scope module divisor_duv $end
$var parameter 32 ! tamanyo $end
$var wire 1 " CLK $end
$var wire 1 # RSTa $end
$var wire 1 $ Start $end
$var wire 1 % Num [31] $end
$var wire 1 & Num [30] $end
$var wire 1 ' Num [29] $end
$var wire 1 ( Num [28] $end
$var wire 1 ) Num [27] $end
$var wire 1 * Num [26] $end
$var wire 1 + Num [25] $end
$var wire 1 , Num [24] $end
$var wire 1 - Num [23] $end
$var wire 1 . Num [22] $end
$var wire 1 / Num [21] $end
$var wire 1 0 Num [20] $end
$var wire 1 1 Num [19] $end
$var wire 1 2 Num [18] $end
$var wire 1 3 Num [17] $end
$var wire 1 4 Num [16] $end
$var wire 1 5 Num [15] $end
$var wire 1 6 Num [14] $end
$var wire 1 7 Num [13] $end
$var wire 1 8 Num [12] $end
$var wire 1 9 Num [11] $end
$var wire 1 : Num [10] $end
$var wire 1 ; Num [9] $end
$var wire 1 < Num [8] $end
$var wire 1 = Num [7] $end
$var wire 1 > Num [6] $end
$var wire 1 ? Num [5] $end
$var wire 1 @ Num [4] $end
$var wire 1 A Num [3] $end
$var wire 1 B Num [2] $end
$var wire 1 C Num [1] $end
$var wire 1 D Num [0] $end
$var wire 1 E Den [31] $end
$var wire 1 F Den [30] $end
$var wire 1 G Den [29] $end
$var wire 1 H Den [28] $end
$var wire 1 I Den [27] $end
$var wire 1 J Den [26] $end
$var wire 1 K Den [25] $end
$var wire 1 L Den [24] $end
$var wire 1 M Den [23] $end
$var wire 1 N Den [22] $end
$var wire 1 O Den [21] $end
$var wire 1 P Den [20] $end
$var wire 1 Q Den [19] $end
$var wire 1 R Den [18] $end
$var wire 1 S Den [17] $end
$var wire 1 T Den [16] $end
$var wire 1 U Den [15] $end
$var wire 1 V Den [14] $end
$var wire 1 W Den [13] $end
$var wire 1 X Den [12] $end
$var wire 1 Y Den [11] $end
$var wire 1 Z Den [10] $end
$var wire 1 [ Den [9] $end
$var wire 1 \ Den [8] $end
$var wire 1 ] Den [7] $end
$var wire 1 ^ Den [6] $end
$var wire 1 _ Den [5] $end
$var wire 1 ` Den [4] $end
$var wire 1 a Den [3] $end
$var wire 1 b Den [2] $end
$var wire 1 c Den [1] $end
$var wire 1 d Den [0] $end
$var reg 32 e Coc [31:0] $end
$var reg 32 f Res [31:0] $end
$var wire 1 g Done $end
$var reg 32 h CONT [31:0] $end
$var reg 32 i ACCU [31:0] $end
$var reg 32 j M [31:0] $end
$var reg 32 k Q [31:0] $end
$var reg 1 l SignNum $end
$var reg 1 m SignDen $end
$var reg 1 n fin $end
$var reg 2 o state [1:0] $end
$upscope $end
$upscope $end
$upscope $end
$enddefinitions $end
#0
$dumpvars
bx e
bx f
bx h
bx i
bx j
bx k
xl
xm
xn
b0 o
b100000 !
xd
xc
xb
xa
x`
x_
x^
x]
x\
x[
xZ
xY
xX
xW
xV
xU
xT
xS
xR
xQ
xP
xO
xN
xM
xL
xK
xJ
xI
xH
xG
xF
xE
xD
xC
xB
xA
x@
x?
x>
x=
x<
x;
x:
x9
x8
x7
x6
x5
x4
x3
x2
x1
x0
x/
x.
x-
x,
x+
x*
x)
x(
x'
x&
x%
x$
1#
0"
xg
$end
#5000
1"
0n
0g
#7000
0d
1c
0b
0a
1`
1_
0^
0]
0\
0[
0Z
0Y
0X
0W
0V
0U
0T
0S
0R
0Q
0P
0O
0N
0M
0L
0K
0J
0I
0H
0G
0F
0E
0D
0C
1B
0A
0@
1?
1>
0=
0<
0;
0:
09
08
07
06
05
04
03
02
01
00
0/
0.
0-
0,
0+
0*
0)
0(
0'
0&
0%
1$
#10000
0"
0#
b0 i
b0 k
b0 h
b0 e
b0 f
#15000
1"
#20000
0"
1#
#25000
1"
b11111 h
0l
0m
b1100100 k
b110010 j
b1 o
#27000
0$
#30000
0"
#35000
1"
b11001000 k
b10 o
#40000
0"
#45000
1"
b11110 h
b1 o
#50000
0"
#55000
1"
b110010000 k
b10 o
#60000
0"
#65000
1"
b11101 h
b1 o
#70000
0"
#75000
1"
b1100100000 k
b10 o
#80000
0"
#85000
1"
b11100 h
b1 o
#90000
0"
#95000
1"
b11001000000 k
b10 o
#100000
0"
#105000
1"
b11011 h
b1 o
#110000
0"
#115000
1"
b110010000000 k
b10 o
#120000
0"
#125000
1"
b11010 h
b1 o
#130000
0"
#135000
1"
b1100100000000 k
b10 o
#140000
0"
#145000
1"
b11001 h
b1 o
#150000
0"
#155000
1"
b11001000000000 k
b10 o
#160000
0"
#165000
1"
b11000 h
b1 o
#170000
0"
#175000
1"
b110010000000000 k
b10 o
#180000
0"
#185000
1"
b10111 h
b1 o
#190000
0"
#195000
1"
b1100100000000000 k
b10 o
#200000
0"
#205000
1"
b10110 h
b1 o
#210000
0"
#215000
1"
b11001000000000000 k
b10 o
#220000
0"
#225000
1"
b10101 h
b1 o
#230000
0"
#235000
1"
b110010000000000000 k
b10 o
#240000
0"
#245000
1"
b10100 h
b1 o
#250000
0"
#255000
1"
b1100100000000000000 k
b10 o
#260000
0"
#265000
1"
b10011 h
b1 o
#270000
0"
#275000
1"
b11001000000000000000 k
b10 o
#280000
0"
#285000
1"
b10010 h
b1 o
#290000
0"
#295000
1"
b110010000000000000000 k
b10 o
#300000
0"
#305000
1"
b10001 h
b1 o
#310000
0"
#315000
1"
b1100100000000000000000 k
b10 o
#320000
0"
#325000
1"
b10000 h
b1 o
#330000
0"
#335000
1"
b11001000000000000000000 k
b10 o
#340000
0"
#345000
1"
b1111 h
b1 o
#350000
0"
#355000
1"
b110010000000000000000000 k
b10 o
#360000
0"
#365000
1"
b1110 h
b1 o
#370000
0"
#375000
1"
b1100100000000000000000000 k
b10 o
#380000
0"
#385000
1"
b1101 h
b1 o
#390000
0"
#395000
1"
b11001000000000000000000000 k
b10 o
#400000
0"
#405000
1"
b1100 h
b1 o
#410000
0"
#415000
1"
b110010000000000000000000000 k
b10 o
#420000
0"
#425000
1"
b1011 h
b1 o
#430000
0"
#435000
1"
b1100100000000000000000000000 k
b10 o
#440000
0"
#445000
1"
b1010 h
b1 o
#450000
0"
#455000
1"
b11001000000000000000000000000 k
b10 o
#460000
0"
#465000
1"
b1001 h
b1 o
#470000
0"
#475000
1"
b110010000000000000000000000000 k
b10 o
#480000
0"
#485000
1"
b1000 h
b1 o
#490000
0"
#495000
1"
b1100100000000000000000000000000 k
b10 o
#500000
0"
#505000
1"
b111 h
b1 o
#510000
0"
#515000
1"
b11001000000000000000000000000000 k
b10 o
#520000
0"
#525000
1"
b110 h
b1 o
#530000
0"
#535000
1"
b10010000000000000000000000000000 k
b1 i
b10 o
#540000
0"
#545000
1"
b101 h
b1 o
#550000
0"
#555000
1"
b100000000000000000000000000000 k
b11 i
b10 o
#560000
0"
#565000
1"
b100 h
b1 o
#570000
0"
#575000
1"
b1000000000000000000000000000000 k
b110 i
b10 o
#580000
0"
#585000
1"
b11 h
b1 o
#590000
0"
#595000
1"
b10000000000000000000000000000000 k
b1100 i
b10 o
#600000
0"
#605000
1"
b10 h
b1 o
#610000
0"
#615000
1"
b0 k
b11001 i
b10 o
#620000
0"
#625000
1"
b1 h
b1 o
#630000
0"
#635000
1"
b110010 i
b10 o
#640000
0"
#645000
1"
b0 h
b1 k
b0 i
b1 o
#650000
0"
#655000
1"
b10 k
b10 o
#660000
0"
#665000
1"
b11111111111111111111111111111111 h
b11 o
#670000
0"
#675000
1"
1n
b10 e
b0 o
1g
#680000
0"
#685000
1"
0n
0g
#690000
0"
#695000
1"
#697000
1b
1a
0`
0_
1^
1]
1\
1[
1Z
1Y
1X
1W
1V
1U
1T
1S
1R
1Q
1P
1O
1N
1M
1L
1K
1J
1I
1H
1G
1F
1E
#700000
0"
#705000
1"
#707000
1$
#710000
0"
#715000
1"
b11111 h
1m
b1100100 k
b1 o
#720000
0"
#725000
1"
b11001000 k
b10 o
#727000
0$
#730000
0"
#735000
1"
b11110 h
b1 o
#740000
0"
#745000
1"
b110010000 k
b10 o
#750000
0"
#755000
1"
b11101 h
b1 o
#760000
0"
#765000
1"
b1100100000 k
b10 o
#770000
0"
#775000
1"
b11100 h
b1 o
#780000
0"
#785000
1"
b11001000000 k
b10 o
#790000
0"
#795000
1"
b11011 h
b1 o
#800000
0"
#805000
1"
b110010000000 k
b10 o
#810000
0"
#815000
1"
b11010 h
b1 o
#820000
0"
#825000
1"
b1100100000000 k
b10 o
#830000
0"
#835000
1"
b11001 h
b1 o
#840000
0"
#845000
1"
b11001000000000 k
b10 o
#850000
0"
#855000
1"
b11000 h
b1 o
#860000
0"
#865000
1"
b110010000000000 k
b10 o
#870000
0"
#875000
1"
b10111 h
b1 o
#880000
0"
#885000
1"
b1100100000000000 k
b10 o
#890000
0"
#895000
1"
b10110 h
b1 o
#900000
0"
#905000
1"
b11001000000000000 k
b10 o
#910000
0"
#915000
1"
b10101 h
b1 o
#920000
0"
#925000
1"
b110010000000000000 k
b10 o
#930000
0"
#935000
1"
b10100 h
b1 o
#940000
0"
#945000
1"
b1100100000000000000 k
b10 o
#950000
0"
#955000
1"
b10011 h
b1 o
#960000
0"
#965000
1"
b11001000000000000000 k
b10 o
#970000
0"
#975000
1"
b10010 h
b1 o
#980000
0"
#985000
1"
b110010000000000000000 k
b10 o
#990000
0"
#995000
1"
b10001 h
b1 o
#1000000
0"
#1005000
1"
b1100100000000000000000 k
b10 o
#1010000
0"
#1015000
1"
b10000 h
b1 o
#1020000
0"
#1025000
1"
b11001000000000000000000 k
b10 o
#1030000
0"
#1035000
1"
b1111 h
b1 o
#1040000
0"
#1045000
1"
b110010000000000000000000 k
b10 o
#1050000
0"
#1055000
1"
b1110 h
b1 o
#1060000
0"
#1065000
1"
b1100100000000000000000000 k
b10 o
#1070000
0"
#1075000
1"
b1101 h
b1 o
#1080000
0"
#1085000
1"
b11001000000000000000000000 k
b10 o
#1090000
0"
#1095000
1"
b1100 h
b1 o
#1100000
0"
#1105000
1"
b110010000000000000000000000 k
b10 o
#1110000
0"
#1115000
1"
b1011 h
b1 o
#1120000
0"
#1125000
1"
b1100100000000000000000000000 k
b10 o
#1130000
0"
#1135000
1"
b1010 h
b1 o
#1140000
0"
#1145000
1"
b11001000000000000000000000000 k
b10 o
#1150000
0"
#1155000
1"
b1001 h
b1 o
#1160000
0"
#1165000
1"
b110010000000000000000000000000 k
b10 o
#1170000
0"
#1175000
1"
b1000 h
b1 o
#1180000
0"
#1185000
1"
b1100100000000000000000000000000 k
b10 o
#1190000
0"
#1195000
1"
b111 h
b1 o
#1200000
0"
#1205000
1"
b11001000000000000000000000000000 k
b10 o
#1210000
0"
#1215000
1"
b110 h
b1 o
#1220000
0"
#1225000
1"
b10010000000000000000000000000000 k
b1 i
b10 o
#1230000
0"
#1235000
1"
b101 h
b1 o
#1240000
0"
#1245000
1"
b100000000000000000000000000000 k
b11 i
b10 o
#1250000
0"
#1255000
1"
b100 h
b1 o
#1260000
0"
#1265000
1"
b1000000000000000000000000000000 k
b110 i
b10 o
#1270000
0"
#1275000
1"
b11 h
b1 o
#1280000
0"
#1285000
1"
b10000000000000000000000000000000 k
b1100 i
b10 o
#1290000
0"
#1295000
1"
b10 h
b1 o
#1300000
0"
#1305000
1"
b0 k
b11001 i
b10 o
#1310000
0"
#1315000
1"
b1 h
b1 o
#1320000
0"
#1325000
1"
b110010 i
b10 o
#1330000
0"
#1335000
1"
b0 h
b1 k
b0 i
b1 o
#1340000
0"
#1345000
1"
b10 k
b10 o
#1350000
0"
#1355000
1"
b11111111111111111111111111111111 h
b11 o
#1360000
0"
#1365000
1"
1n
b11111111111111111111111111111110 e
b0 o
1g
#1370000
0"
#1375000
1"
0n
0g
#1380000
0"
#1385000
1"
#1387000
0a
1`
0^
0\
0[
0Z
0Y
0X
0W
0V
0U
0T
0S
0R
0Q
0P
0O
0N
0M
0L
0K
0J
0I
0H
0G
0F
0E
0B
1A
1@
0>
1<
1;
1:
19
18
17
16
15
14
13
12
11
10
1/
1.
1-
1,
1+
1*
1)
1(
1'
1&
1%
#1390000
0"
#1395000
1"
#1397000
1$
#1400000
0"
#1405000
1"
b11111 h
1l
0m
b11001000 k
b10010110 j
b1 o
#1410000
0"
#1415000
1"
b110010000 k
b10 o
#1417000
0$
#1420000
0"
#1425000
1"
b11110 h
b1 o
#1430000
0"
#1435000
1"
b1100100000 k
b10 o
#1440000
0"
#1445000
1"
b11101 h
b1 o
#1450000
0"
#1455000
1"
b11001000000 k
b10 o
#1460000
0"
#1465000
1"
b11100 h
b1 o
#1470000
0"
#1475000
1"
b110010000000 k
b10 o
#1480000
0"
#1485000
1"
b11011 h
b1 o
#1490000
0"
#1495000
1"
b1100100000000 k
b10 o
#1500000
0"
#1505000
1"
b11010 h
b1 o
#1510000
0"
#1515000
1"
b11001000000000 k
b10 o
#1520000
0"
#1525000
1"
b11001 h
b1 o
#1530000
0"
#1535000
1"
b110010000000000 k
b10 o
#1540000
0"
#1545000
1"
b11000 h
b1 o
#1550000
0"
#1555000
1"
b1100100000000000 k
b10 o
#1560000
0"
#1565000
1"
b10111 h
b1 o
#1570000
0"
#1575000
1"
b11001000000000000 k
b10 o
#1580000
0"
#1585000
1"
b10110 h
b1 o
#1590000
0"
#1595000
1"
b110010000000000000 k
b10 o
#1600000
0"
#1605000
1"
b10101 h
b1 o
#1610000
0"
#1615000
1"
b1100100000000000000 k
b10 o
#1620000
0"
#1625000
1"
b10100 h
b1 o
#1630000
0"
#1635000
1"
b11001000000000000000 k
b10 o
#1640000
0"
#1645000
1"
b10011 h
b1 o
#1650000
0"
#1655000
1"
b110010000000000000000 k
b10 o
#1660000
0"
#1665000
1"
b10010 h
b1 o
#1670000
0"
#1675000
1"
b1100100000000000000000 k
b10 o
#1680000
0"
#1685000
1"
b10001 h
b1 o
#1690000
0"
#1695000
1"
b11001000000000000000000 k
b10 o
#1700000
0"
#1705000
1"
b10000 h
b1 o
#1710000
0"
#1715000
1"
b110010000000000000000000 k
b10 o
#1720000
0"
#1725000
1"
b1111 h
b1 o
#1730000
0"
#1735000
1"
b1100100000000000000000000 k
b10 o
#1740000
0"
#1745000
1"
b1110 h
b1 o
#1750000
0"
#1755000
1"
b11001000000000000000000000 k
b10 o
#1760000
0"
#1765000
1"
b1101 h
b1 o
#1770000
0"
#1775000
1"
b110010000000000000000000000 k
b10 o
#1780000
0"
#1785000
1"
b1100 h
b1 o
#1790000
0"
#1795000
1"
b1100100000000000000000000000 k
b10 o
#1800000
0"
#1805000
1"
b1011 h
b1 o
#1810000
0"
#1815000
1"
b11001000000000000000000000000 k
b10 o
#1820000
0"
#1825000
1"
b1010 h
b1 o
#1830000
0"
#1835000
1"
b110010000000000000000000000000 k
b10 o
#1840000
0"
#1845000
1"
b1001 h
b1 o
#1850000
0"
#1855000
1"
b1100100000000000000000000000000 k
b10 o
#1860000
0"
#1865000
1"
b1000 h
b1 o
#1870000
0"
#1875000
1"
b11001000000000000000000000000000 k
b10 o
#1880000
0"
#1885000
1"
b111 h
b1 o
#1890000
0"
#1895000
1"
b10010000000000000000000000000000 k
b1 i
b10 o
#1900000
0"
#1905000
1"
b110 h
b1 o
#1910000
0"
#1915000
1"
b100000000000000000000000000000 k
b11 i
b10 o
#1920000
0"
#1925000
1"
b101 h
b1 o
#1930000
0"
#1935000
1"
b1000000000000000000000000000000 k
b110 i
b10 o
#1940000
0"
#1945000
1"
b100 h
b1 o
#1950000
0"
#1955000
1"
b10000000000000000000000000000000 k
b1100 i
b10 o
#1960000
0"
#1965000
1"
b11 h
b1 o
#1970000
0"
#1975000
1"
b0 k
b11001 i
b10 o
#1980000
0"
#1985000
1"
b10 h
b1 o
#1990000
0"
#1995000
1"
b110010 i
b10 o
#2000000
0"
#2005000
1"
b1 h
b1 o
#2010000
0"
#2015000
1"
b1100100 i
b10 o
#2020000
0"
#2025000
1"
b0 h
b1 o
#2030000
0"
#2035000
1"
b11001000 i
b10 o
#2040000
0"
#2045000
1"
b11111111111111111111111111111111 h
b1 k
b110010 i
b11 o
#2050000
0"
#2055000
1"
1n
b11111111111111111111111111111111 e
b11111111111111111111111111001110 f
b0 o
1g
#2060000
0"
#2065000
1"
0n
0g
#2070000
0"
#2075000
1"
#2077000
0b
1a
0`
1_
1^
0]
1\
1[
1Z
1Y
1X
1W
1V
1U
1T
1S
1R
1Q
1P
1O
1N
1M
1L
1K
1J
1I
1H
1G
1F
1E
#2080000
0"
#2085000
1"
#2087000
1$
#2090000
0"
#2095000
1"
b0 i
b11111 h
1m
b11001000 k
b1 o
#2100000
0"
#2105000
1"
b110010000 k
b10 o
#2107000
0$
#2110000
0"
#2115000
1"
b11110 h
b1 o
#2120000
0"
#2125000
1"
b1100100000 k
b10 o
#2130000
0"
#2135000
1"
b11101 h
b1 o
#2140000
0"
#2145000
1"
b11001000000 k
b10 o
#2150000
0"
#2155000
1"
b11100 h
b1 o
#2160000
0"
#2165000
1"
b110010000000 k
b10 o
#2170000
0"
#2175000
1"
b11011 h
b1 o
#2180000
0"
#2185000
1"
b1100100000000 k
b10 o
#2190000
0"
#2195000
1"
b11010 h
b1 o
#2200000
0"
#2205000
1"
b11001000000000 k
b10 o
#2210000
0"
#2215000
1"
b11001 h
b1 o
#2220000
0"
#2225000
1"
b110010000000000 k
b10 o
#2230000
0"
#2235000
1"
b11000 h
b1 o
#2240000
0"
#2245000
1"
b1100100000000000 k
b10 o
#2250000
0"
#2255000
1"
b10111 h
b1 o
#2260000
0"
#2265000
1"
b11001000000000000 k
b10 o
#2270000
0"
#2275000
1"
b10110 h
b1 o
#2280000
0"
#2285000
1"
b110010000000000000 k
b10 o
#2290000
0"
#2295000
1"
b10101 h
b1 o
#2300000
0"
#2305000
1"
b1100100000000000000 k
b10 o
#2310000
0"
#2315000
1"
b10100 h
b1 o
#2320000
0"
#2325000
1"
b11001000000000000000 k
b10 o
#2330000
0"
#2335000
1"
b10011 h
b1 o
#2340000
0"
#2345000
1"
b110010000000000000000 k
b10 o
#2350000
0"
#2355000
1"
b10010 h
b1 o
#2360000
0"
#2365000
1"
b1100100000000000000000 k
b10 o
#2370000
0"
#2375000
1"
b10001 h
b1 o
#2380000
0"
#2385000
1"
b11001000000000000000000 k
b10 o
#2390000
0"
#2395000
1"
b10000 h
b1 o
#2400000
0"
#2405000
1"
b110010000000000000000000 k
b10 o
#2410000
0"
#2415000
1"
b1111 h
b1 o
#2420000
0"
#2425000
1"
b1100100000000000000000000 k
b10 o
#2430000
0"
#2435000
1"
b1110 h
b1 o
#2440000
0"
#2445000
1"
b11001000000000000000000000 k
b10 o
#2450000
0"
#2455000
1"
b1101 h
b1 o
#2460000
0"
#2465000
1"
b110010000000000000000000000 k
b10 o
#2470000
0"
#2475000
1"
b1100 h
b1 o
#2480000
0"
#2485000
1"
b1100100000000000000000000000 k
b10 o
#2490000
0"
#2495000
1"
b1011 h
b1 o
#2500000
0"
#2505000
1"
b11001000000000000000000000000 k
b10 o
#2510000
0"
#2515000
1"
b1010 h
b1 o
#2520000
0"
#2525000
1"
b110010000000000000000000000000 k
b10 o
#2530000
0"
#2535000
1"
b1001 h
b1 o
#2540000
0"
#2545000
1"
b1100100000000000000000000000000 k
b10 o
#2550000
0"
#2555000
1"
b1000 h
b1 o
#2560000
0"
#2565000
1"
b11001000000000000000000000000000 k
b10 o
#2570000
0"
#2575000
1"
b111 h
b1 o
#2580000
0"
#2585000
1"
b10010000000000000000000000000000 k
b1 i
b10 o
#2590000
0"
#2595000
1"
b110 h
b1 o
#2600000
0"
#2605000
1"
b100000000000000000000000000000 k
b11 i
b10 o
#2610000
0"
#2615000
1"
b101 h
b1 o
#2620000
0"
#2625000
1"
b1000000000000000000000000000000 k
b110 i
b10 o
#2630000
0"
#2635000
1"
b100 h
b1 o
#2640000
0"
#2645000
1"
b10000000000000000000000000000000 k
b1100 i
b10 o
#2650000
0"
#2655000
1"
b11 h
b1 o
#2660000
0"
#2665000
1"
b0 k
b11001 i
b10 o
#2670000
0"
#2675000
1"
b10 h
b1 o
#2680000
0"
#2685000
1"
b110010 i
b10 o
#2690000
0"
#2695000
1"
b1 h
b1 o
#2700000
0"
#2705000
1"
b1100100 i
b10 o
#2710000
0"
#2715000
1"
b0 h
b1 o
#2720000
0"
#2725000
1"
b11001000 i
b10 o
#2730000
0"
#2735000
1"
b11111111111111111111111111111111 h
b1 k
b110010 i
b11 o
#2740000
0"
#2745000
1"
1n
b1 e
b0 o
1g
#2750000
0"
#2755000
1"
0n
0g
#2760000
0"
#2765000
1"
#2767000
0c
1`
0\
0V
0U
0T
0R
0O
0M
0J
0I
0H
0G
0F
1D
1B
0A
0@
1>
1=
0<
09
06
04
03
02
01
00
0/
0.
0-
0,
0+
0*
0)
0(
0'
0&
0%
#2770000
0"
#2775000
1"
#2777000
1$
#2780000
0"
#2785000
1"
b0 i
b11111 h
0l
b1011011011100101 k
b1111100101001011100000110001000 j
b1 o
#2790000
0"
#2795000
1"
b10110110111001010 k
b10 o
#2797000
0$
#2800000
0"
#2805000
1"
b11110 h
b1 o
#2810000
0"
#2815000
1"
b101101101110010100 k
b10 o
#2820000
0"
#2825000
1"
b11101 h
b1 o
#2830000
0"
#2835000
1"
b1011011011100101000 k
b10 o
#2840000
0"
#2845000
1"
b11100 h
b1 o
#2850000
0"
#2855000
1"
b10110110111001010000 k
b10 o
#2860000
0"
#2865000
1"
b11011 h
b1 o
#2870000
0"
#2875000
1"
b101101101110010100000 k
b10 o
#2880000
0"
#2885000
1"
b11010 h
b1 o
#2890000
0"
#2895000
1"
b1011011011100101000000 k
b10 o
#2900000
0"
#2905000
1"
b11001 h
b1 o
#2910000
0"
#2915000
1"
b10110110111001010000000 k
b10 o
#2920000
0"
#2925000
1"
b11000 h
b1 o
#2930000
0"
#2935000
1"
b101101101110010100000000 k
b10 o
#2940000
0"
#2945000
1"
b10111 h
b1 o
#2950000
0"
#2955000
1"
b1011011011100101000000000 k
b10 o
#2960000
0"
#2965000
1"
b10110 h
b1 o
#2970000
0"
#2975000
1"
b10110110111001010000000000 k
b10 o
#2980000
0"
#2985000
1"
b10101 h
b1 o
#2990000
0"
#2995000
1"
b101101101110010100000000000 k
b10 o
#3000000
0"
#3005000
1"
b10100 h
b1 o
#3010000
0"
#3015000
1"
b1011011011100101000000000000 k
b10 o
#3020000
0"
#3025000
1"
b10011 h
b1 o
#3030000
0"
#3035000
1"
b10110110111001010000000000000 k
b10 o
#3040000
0"
#3045000
1"
b10010 h
b1 o
#3050000
0"
#3055000
1"
b101101101110010100000000000000 k
b10 o
#3060000
0"
#3065000
1"
b10001 h
b1 o
#3070000
0"
#3075000
1"
b1011011011100101000000000000000 k
b10 o
#3080000
0"
#3085000
1"
b10000 h
b1 o
#3090000
0"
#3095000
1"
b10110110111001010000000000000000 k
b10 o
#3100000
0"
#3105000
1"
b1111 h
b1 o
#3110000
0"
#3115000
1"
b1101101110010100000000000000000 k
b1 i
b10 o
#3120000
0"
#3125000
1"
b1110 h
b1 o
#3130000
0"
#3135000
1"
b11011011100101000000000000000000 k
b10 i
b10 o
#3140000
0"
#3145000
1"
b1101 h
b1 o
#3150000
0"
#3155000
1"
b10110111001010000000000000000000 k
b101 i
b10 o
#3160000
0"
#3165000
1"
b1100 h
b1 o
#3170000
0"
#3175000
1"
b1101110010100000000000000000000 k
b1011 i
b10 o
#3180000
0"
#3185000
1"
b1011 h
b1 o
#3190000
0"
#3195000
1"
b11011100101000000000000000000000 k
b10110 i
b10 o
#3200000
0"
#3205000
1"
b1010 h
b1 o
#3210000
0"
#3215000
1"
b10111001010000000000000000000000 k
b101101 i
b10 o
#3220000
0"
#3225000
1"
b1001 h
b1 o
#3230000
0"
#3235000
1"
b1110010100000000000000000000000 k
b1011011 i
b10 o
#3240000
0"
#3245000
1"
b1000 h
b1 o
#3250000
0"
#3255000
1"
b11100101000000000000000000000000 k
b10110110 i
b10 o
#3260000
0"
#3265000
1"
b111 h
b1 o
#3270000
0"
#3275000
1"
b11001010000000000000000000000000 k
b101101101 i
b10 o
#3280000
0"
#3285000
1"
b110 h
b1 o
#3290000
0"
#3295000
1"
b10010100000000000000000000000000 k
b1011011011 i
b10 o
#3300000
0"
#3305000
1"
b101 h
b1 o
#3310000
0"
#3315000
1"
b101000000000000000000000000000 k
b10110110111 i
b10 o
#3320000
0"
#3325000
1"
b100 h
b1 o
#3330000
0"
#3335000
1"
b1010000000000000000000000000000 k
b101101101110 i
b10 o
#3340000
0"
#3345000
1"
b11 h
b1 o
#3350000
0"
#3355000
1"
b10100000000000000000000000000000 k
b1011011011100 i
b10 o
#3360000
0"
#3365000
1"
b10 h
b1 o
#3370000
0"
#3375000
1"
b1000000000000000000000000000000 k
b10110110111001 i
b10 o
#3380000
0"
#3385000
1"
b1 h
b1 o
#3390000
0"
#3395000
1"
b10000000000000000000000000000000 k
b101101101110010 i
b10 o
#3400000
0"
#3405000
1"
b0 h
b1 o
#3410000
0"
#3415000
1"
b0 k
b1011011011100101 i
b10 o
#3420000
0"
#3425000
1"
b11111111111111111111111111111111 h
b11 o
#3430000
0"
#3435000
1"
1n
b0 e
b1011011011100101 f
b0 o
1g
#3440000
0"
#3445000
1"
0n
0g
#3450000
0"
#3455000
1"
#3457000
1d
1c
0a
1]
0Z
0X
0W
1U
0S
1R
0P
1O
1M
0L
0K
1F
1C
1A
1@
0>
0=
1<
0;
0:
08
05
14
#3460000
0"
#3465000
1"
#3467000
1$
#3470000
0"
#3475000
1"
b0 i
b11111 h
b10010000100111111 k
b111111000100110111010100001101 j
b1 o
#3480000
0"
#3485000
1"
b100100001001111110 k
b10 o
#3487000
0$
#3490000
0"
#3495000
1"
b11110 h
b1 o
#3500000
0"
#3505000
1"
b1001000010011111100 k
b10 o
#3510000
0"
#3515000
1"
b11101 h
b1 o
#3520000
0"
#3525000
1"
b10010000100111111000 k
b10 o
#3530000
0"
#3535000
1"
b11100 h
b1 o
#3540000
0"
#3545000
1"
b100100001001111110000 k
b10 o
#3550000
0"
#3555000
1"
b11011 h
b1 o
#3560000
0"
#3565000
1"
b1001000010011111100000 k
b10 o
#3570000
0"
#3575000
1"
b11010 h
b1 o
#3580000
0"
#3585000
1"
b10010000100111111000000 k
b10 o
#3590000
0"
#3595000
1"
b11001 h
b1 o
#3600000
0"
#3605000
1"
b100100001001111110000000 k
b10 o
#3610000
0"
#3615000
1"
b11000 h
b1 o
#3620000
0"
#3625000
1"
b1001000010011111100000000 k
b10 o
#3630000
0"
#3635000
1"
b10111 h
b1 o
#3640000
0"
#3645000
1"
b10010000100111111000000000 k
b10 o
#3650000
0"
#3655000
1"
b10110 h
b1 o
#3660000
0"
#3665000
1"
b100100001001111110000000000 k
b10 o
#3670000
0"
#3675000
1"
b10101 h
b1 o
#3680000
0"
#3685000
1"
b1001000010011111100000000000 k
b10 o
#3690000
0"
#3695000
1"
b10100 h
b1 o
#3700000
0"
#3705000
1"
b10010000100111111000000000000 k
b10 o
#3710000
0"
#3715000
1"
b10011 h
b1 o
#3720000
0"
#3725000
1"
b100100001001111110000000000000 k
b10 o
#3730000
0"
#3735000
1"
b10010 h
b1 o
#3740000
0"
#3745000
1"
b1001000010011111100000000000000 k
b10 o
#3750000
0"
#3755000
1"
b10001 h
b1 o
#3760000
0"
#3765000
1"
b10010000100111111000000000000000 k
b10 o
#3770000
0"
#3775000
1"
b10000 h
b1 o
#3780000
0"
#3785000
1"
b100001001111110000000000000000 k
b1 i
b10 o
#3790000
0"
#3795000
1"
b1111 h
b1 o
#3800000
0"
#3805000
1"
b1000010011111100000000000000000 k
b10 i
b10 o
#3810000
0"
#3815000
1"
b1110 h
b1 o
#3820000
0"
#3825000
1"
b10000100111111000000000000000000 k
b100 i
b10 o
#3830000
0"
#3835000
1"
b1101 h
b1 o
#3840000
0"
#3845000
1"
b1001111110000000000000000000 k
b1001 i
b10 o
#3850000
0"
#3855000
1"
b1100 h
b1 o
#3860000
0"
#3865000
1"
b10011111100000000000000000000 k
b10010 i
b10 o
#3870000
0"
#3875000
1"
b1011 h
b1 o
#3880000
0"
#3885000
1"
b100111111000000000000000000000 k
b100100 i
b10 o
#3890000
0"
#3895000
1"
b1010 h
b1 o
#3900000
0"
#3905000
1"
b1001111110000000000000000000000 k
b1001000 i
b10 o
#3910000
0"
#3915000
1"
b1001 h
b1 o
#3920000
0"
#3925000
1"
b10011111100000000000000000000000 k
b10010000 i
b10 o
#3930000
0"
#3935000
1"
b1000 h
b1 o
#3940000
0"
#3945000
1"
b111111000000000000000000000000 k
b100100001 i
b10 o
#3950000
0"
#3955000
1"
b111 h
b1 o
#3960000
0"
#3965000
1"
b1111110000000000000000000000000 k
b1001000010 i
b10 o
#3970000
0"
#3975000
1"
b110 h
b1 o
#3980000
0"
#3985000
1"
b11111100000000000000000000000000 k
b10010000100 i
b10 o
#3990000
0"
#3995000
1"
b101 h
b1 o
#4000000
0"
#4005000
1"
b11111000000000000000000000000000 k
b100100001001 i
b10 o
#4010000
0"
#4015000
1"
b100 h
b1 o
#4020000
0"
#4025000
1"
b11110000000000000000000000000000 k
b1001000010011 i
b10 o
#4030000
0"
#4035000
1"
b11 h
b1 o
#4040000
0"
#4045000
1"
b11100000000000000000000000000000 k
b10010000100111 i
b10 o
#4050000
0"
#4055000
1"
b10 h
b1 o
#4060000
0"
#4065000
1"
b11000000000000000000000000000000 k
b100100001001111 i
b10 o
#4070000
0"
#4075000
1"
b1 h
b1 o
#4080000
0"
#4085000
1"
b10000000000000000000000000000000 k
b1001000010011111 i
b10 o
#4090000
0"
#4095000
1"
b0 h
b1 o
#4100000
0"
#4105000
1"
b0 k
b10010000100111111 i
b10 o
#4110000
0"
